HW0-Fangzhou Song
…
It can been seen from the plot that group A has a significant higher clickthrough rate than group B.

Qusetion 2

2.Which results do people tend to try first? How does it change day-to-day?

From the Question1, we have already got the dataset which contains searchResultPage and only first visitPage action for each session, which is data2. Thus, we just need to count the total number of each result_position to see which results people tend to try first using data2.

(data_first=data2 %>%
  filter(action=="visitPage") %>%
  ungroup() %>%
  count(result_position))

## # A tibble: 190 x 2
##    result_position     n
##    <fct>           <int>
##  1 1               21009
##  2 2                4697
##  3 3                2383
##  4 4                1299
##  5 5                 818
##  6 6                 575
##  7 7                 399
##  8 8                 269
##  9 9                 225
## 10 10                196
## # ... with 180 more rows
…
  mutate(
    time=as.integer(substr(timestamp,13,14)) + #second
      as.integer(substr(timestamp,11,12))*60 + #minute
      as.integer(substr(timestamp,9,10))*3600+ #hour
      as.integer(substr(timestamp,7,8))*3600*24 #day
  ) %>%
  arrange(session_id,time) %>%
  group_by(session_id) %>%
  summarise(
    session_length=last(time)-first(time),
    search_count=sum(action=="searchResultPage")
  )
)

## # A tibble: 68,028 x 3
##    session_id       session_length search_count
##    <chr>                     <dbl>        <int>
##  1 0000cbcb67c19c45            0              1
##  2 0001382e027b2ea4          303              1
##  3 0001e8bb90445cb2          435              1
##  4 000216cf18ae1ab1           58.0            6
##  5 000527f711d50dfc            0              1
##  6 00064fe774048046           43.0            2
##  7 00071a2cf97168df            0              1
##  8 0007582fe23d51e6            0              1
##  9 0007b7f6b575feb6          339              1
## 10 00086b6ff8156928            0              1
## # ... with 68,018 more rows
…
